async_FIFO.vcd
$date
	Tue Feb 10 16:59:05 2026
$end
$version
	Icarus Verilog
$end
$timescale
	1s
$end
$scope module AsyncFIFO_Test $end
$var wire 1 ! full $end
$var wire 1 " empty $end
$var wire 8 # data_out [7:0] $end
$var wire 5 $ b_wr_ptr [4:0] $end
$var wire 5 % b_rd_ptr [4:0] $end
$var parameter 32 & DATA_WIDTH $end
$var parameter 32 ' FIFO_Depth $end
$var parameter 32 ( ptr_size $end
$var reg 8 ) d_in [7:0] $end
$var reg 1 * rd_clk $end
$var reg 1 + rd_enb $end
$var reg 1 , rd_rst $end
$var reg 1 - wr_clk $end
$var reg 1 . wr_enb $end
$var reg 1 / wr_rst $end
$var integer 32 0 i [31:0] $end
$scope module dut $end
$var wire 8 1 data_in [7:0] $end
$var wire 1 * rd_clk $end
$var wire 1 + rd_enb $end
$var wire 1 , rd_rst $end
$var wire 1 - wr_clk $end
$var wire 1 . wr_enb $end
$var wire 1 / wr_rst $end
$var wire 5 2 g_wr_ptr_sync [4:0] $end
$var wire 5 3 g_wr_ptr [4:0] $end
$var wire 5 4 g_rd_ptr_sync [4:0] $end
$var wire 5 5 g_rd_ptr [4:0] $end
$var wire 1 ! full $end
$var wire 1 " empty $end
$var wire 8 6 data_out [7:0] $end
$var wire 5 7 b_wr_ptr [4:0] $end
$var wire 5 8 b_rd_ptr [4:0] $end
$var parameter 32 9 depth $end
$var parameter 32 : ptr_size $end
$var parameter 32 ; width $end
$scope module F1 $end
$var wire 1 - clk $end
$var wire 1 / rst $end
$var wire 5 < d_in [4:0] $end
$var parameter 32 = DATA_WIDTH $end
$var reg 5 > d_out [4:0] $end
$var reg 5 ? temp [4:0] $end
$upscope $end
$scope module F2 $end
$var wire 1 * clk $end
$var wire 1 , rst $end
$var wire 5 @ d_in [4:0] $end
$var parameter 32 A DATA_WIDTH $end
$var reg 5 B d_out [4:0] $end
$var reg 5 C temp [4:0] $end
$upscope $end
$scope module MEM $end
$var wire 8 D d_in [7:0] $end
$var wire 1 * rd_clk $end
$var wire 1 + rd_en $end
$var wire 1 - wr_clk $end
$var wire 1 . wr_en $end
$var wire 5 E wr_ptr [4:0] $end
$var wire 5 F rd_ptr [4:0] $end
$var wire 1 ! full $end
$var wire 1 " empty $end
$var parameter 32 G depth $end
$var parameter 32 H ptr_size $end
$var parameter 32 I width $end
$var reg 8 J d_out [7:0] $end
$upscope $end
$scope module R_handler $end
$var wire 5 K g_rd_ptr_next [4:0] $end
$var wire 5 L g_wr_ptr_sync [4:0] $end
$var wire 1 * rd_clk $end
$var wire 1 + rd_en $end
$var wire 1 , rst $end
$var wire 1 M rempty $end
$var wire 5 N b_rd_ptr_next [4:0] $end
$var parameter 32 O ptr_size $end
$var reg 5 P b_rd_ptr [4:0] $end
$var reg 1 " empty $end
$var reg 5 Q g_rd_ptr [4:0] $end
$upscope $end
$scope module W_handler $end
$var wire 5 R g_rptr_sync [4:0] $end
$var wire 5 S g_wptr_next [4:0] $end
$var wire 1 / rst $end
$var wire 1 - wr_clk $end
$var wire 1 . wr_en $end
$var wire 1 T wfull $end
$var wire 5 U b_wptr_next [4:0] $end
$var parameter 32 V ptr_size $end
$var reg 5 W b_wptr [4:0] $end
$var reg 1 ! full $end
$var reg 5 X g_wptr [4:0] $end
$upscope $end
$upscope $end
$upscope $end
$enddefinitions $end
$comment Show the parameter values. $end
$dumpall
b100 V
b100 O
b1000 I
b100 H
b10000 G
b100 A
b100 =
b1000 ;
b100 :
b10000 9
b100 (
b10000 '
b1000 &
$end
#0
$dumpvars
b0 X
b0 W
b0 U
0T
b0 S
b0 R
b0 Q
b0 P
b0 N
1M
b0 L
b0 K
bx J
b0 F
b0 E
b0 D
b0 C
b0 B
b0 @
b0 ?
b0 >
b0 <
b0 8
b0 7
bx 6
b0 5
b0 4
b0 3
b0 2
b0 1
bx 0
1/
0.
0-
1,
0+
0*
b0 )
b0 %
b0 $
bx #
1"
0!
$end
#5
1-
#10
0-
#15
1-
#20
0-
1*
#25
1-
#30
0-
#35
1-
#40
0-
0*
b1 S
b1 U
b0 0
1.
0/
0,
#45
b11 S
b1 3
b1 @
b1 X
b10 U
b1 $
b1 7
b1 E
b1 W
1-
#50
0-
b1 )
b1 1
b1 D
b1 0
#55
b10 S
b11 3
b11 @
b11 X
b11 U
b10 $
b10 7
b10 E
b10 W
1-
#60
b11 C
0-
1*
b10 )
b10 1
b10 D
b10 0
#65
b110 S
b10 3
b10 @
b10 X
b100 U
b11 $
b11 7
b11 E
b11 W
1-
#70
0-
b11 )
b11 1
b11 D
b11 0
#75
b111 S
b110 3
b110 @
b110 X
b101 U
b100 $
b100 7
b100 E
b100 W
1-
#80
0-
0*
b100 )
b100 1
b100 D
b100 0
#85
b101 S
b111 3
b111 @
b111 X
b110 U
b101 $
b101 7
b101 E
b101 W
1-
#90
0-
b111 S
b101 U
0.
b101 0
#95
1-
#100
0M
b11 2
b11 B
b11 L
b111 C
0-
1*
#105
1-
#110
0-
#115
1-
#120
0-
0*
#125
1-
#130
0-
#135
1-
#140
b111 2
b111 B
b111 L
0"
0-
1*
#145
1-
#150
0-
#155
1-
#160
0-
0*
#165
1-
#170
0-
b1 K
b1 N
1+
#175
1-
#180
b11 K
b0 #
b0 6
b0 J
b1 5
b1 <
b1 Q
b10 N
b1 %
b1 8
b1 F
b1 P
0-
1*
#185
b1 ?
1-
#190
0-
#195
b1 4
b1 >
b1 R
1-
#200
0-
0*
#205
1-
#210
0-
#215
1-
#220
b10 K
b1 #
b1 6
b1 J
b11 5
b11 <
b11 Q
b11 N
b10 %
b10 8
b10 F
b10 P
0-
1*
#225
b11 ?
1-
#230
0-
#235
b11 4
b11 >
b11 R
1-
#240
0-
0*
#245
1-
#250
0-
#255
1-
#260
b110 K
b10 #
b10 6
b10 J
b10 5
b10 <
b10 Q
b100 N
b11 %
b11 8
b11 F
b11 P
0-
1*
#265
b10 ?
1-
#270
0-
#275
b10 4
b10 >
b10 R
1-
#280
0-
0*
#285
1-
#290
0-
b10 K
b11 N
0+
#295
1-
#300
0-
1*
#305
1-
#310
0-
b101 S
b110 U
b101 )
b101 1
b101 D
1.
#315
b100 S
b101 3
b101 @
b101 X
b111 U
b110 $
b110 7
b110 E
b110 W
1-
#320
0-
0*
b110 )
b110 1
b110 D
b110 0
#325
b1100 S
b100 3
b100 @
b100 X
b1000 U
b111 $
b111 7
b111 E
b111 W
1-
#330
0-
b111 )
b111 1
b111 D
b111 0
#335
b1101 S
b1100 3
b1100 @
b1100 X
b1001 U
b1000 $
b1000 7
b1000 E
b1000 W
1-
#340
b1100 C
0-
1*
b1000 )
b1000 1
b1000 D
b1000 0
#345
b1111 S
b1101 3
b1101 @
b1101 X
b1010 U
b1001 $
b1001 7
b1001 E
b1001 W
1-
#350
0-
b1001 )
b1001 1
b1001 D
b1001 0
#355
b1110 S
b1111 3
b1111 @
b1111 X
b1011 U
b1010 $
b1010 7
b1010 E
b1010 W
1-
#360
0-
0*
b1010 )
b1010 1
b1010 D
b1010 0
#365
b1010 S
b1110 3
b1110 @
b1110 X
b1100 U
b1011 $
b1011 7
b1011 E
b1011 W
1-
#370
0-
b1011 )
b1011 1
b1011 D
b1011 0
#375
b1011 S
b1010 3
b1010 @
b1010 X
b1101 U
b1100 $
b1100 7
b1100 E
b1100 W
1-
#380
b1100 2
b1100 B
b1100 L
b1010 C
0-
1*
b1100 )
b1100 1
b1100 D
b1100 0
#385
b1001 S
b1011 3
b1011 @
b1011 X
b1110 U
b1101 $
b1101 7
b1101 E
b1101 W
1-
#390
0-
b1011 S
b1101 U
0.
b1101 0
#395
1-
#400
0-
0*
#405
1-
#410
0-
#415
1-
#420
b1010 2
b1010 B
b1010 L
b1011 C
0-
1*
#425
1-
#430
0-
#435
1-
#440
0-
0*
#445
1-
#450
0-
#455
1-
#460
b1011 2
b1011 B
b1011 L
0-
1*
#465
1-
#470
0-
b110 K
b100 N
1+
#475
1-
#480
0-
0*
#485
1-
#490
0-
#495
1-
#500
b111 K
b11 #
b11 6
b11 J
b110 5
b110 <
b110 Q
b101 N
b100 %
b100 8
b100 F
b100 P
0-
1*
#505
b110 ?
1-
#510
0-
#515
b110 4
b110 >
b110 R
1-
#520
0-
0*
#525
1-
#530
0-
#535
1-
#540
b101 K
b100 #
b100 6
b100 J
b111 5
b111 <
b111 Q
b110 N
b101 %
b101 8
b101 F
b101 P
0-
1*
#545
b111 ?
1-
#550
0-
#555
b111 4
b111 >
b111 R
1-
#560
0-
0*
#565
1-
#570
0-
#575
1-
#580
b100 K
b101 #
b101 6
b101 J
b101 5
b101 <
b101 Q
b111 N
b110 %
b110 8
b110 F
b110 P
0-
1*
#585
b101 ?
1-
#590
0-
#595
b101 4
b101 >
b101 R
1-
#600
0-
0*
#605
1-
#610
0-
#615
1-
#620
0M
b1100 K
b110 #
b110 6
b110 J
b100 5
b100 <
b100 Q
b1000 N
b111 %
b111 8
b111 F
b111 P
0-
1*
#625
b100 ?
1-
#630
0-
#635
b100 4
b100 >
b100 R
1-
#640
0-
0*
#645
1-
#650
0-
#655
1-
#660
b1101 K
b111 #
b111 6
b111 J
b1100 5
b1100 <
b1100 Q
b1001 N
b1000 %
b1000 8
b1000 F
b1000 P
0-
1*
#665
b1100 ?
1-
#670
0-
#675
b1100 4
b1100 >
b1100 R
1-
#680
0-
0*
#685
1-
#690
0-
#695
1-
#700
b1111 K
b1000 #
b1000 6
b1000 J
b1101 5
b1101 <
b1101 Q
b1010 N
b1001 %
b1001 8
b1001 F
b1001 P
0-
1*
#705
b1101 ?
1-
#710
0-
#715
b1101 4
b1101 >
b1101 R
1-
#720
0-
0*
#725
1-
#730
0-
#735
1-
#740
b1110 K
b1001 #
b1001 6
b1001 J
b1111 5
b1111 <
b1111 Q
b1011 N
b1010 %
b1010 8
b1010 F
b1010 P
0-
1*
#745
b1111 ?
1-
#750
0-
#755
b1111 4
b1111 >
b1111 R
1-
#760
0-
0*
#765
1-
#770
0-
#775
1-
#780
b1010 K
b1010 #
b1010 6
b1010 J
b1110 5
b1110 <
b1110 Q
b1100 N
b1011 %
b1011 8
b1011 F
b1011 P
0-
1*
#785
b1110 ?
1-
#790
0-
#795
b1110 4
b1110 >
b1110 R
1-
#800
0-
0*
#805
1-
#810
0-
#815
1-
#820
1M
b1011 K
b1011 #
b1011 6
b1011 J
b1010 5
b1010 <
b1010 Q
b1101 N
b1100 %
b1100 8
b1100 F
b1100 P
0-
1*
#825
b1010 ?
1-
#830
0-
#835
b1010 4
b1010 >
b1010 R
1-
#840
0-
0*
#845
1-
#850
0-
#855
1-
#860
1M
b1011 K
b1100 #
b1100 6
b1100 J
1"
b1011 5
b1011 <
b1011 Q
b1101 N
b1101 %
b1101 8
b1101 F
b1101 P
0-
1*
#865
b1011 ?
1-
#870
0-
b1001 S
b1110 U
b1100100 )
b1100100 1
b1100100 D
b1100100 0
1.
0+
#875
b1000 S
b1011 4
b1011 >
b1011 R
b1001 3
b1001 @
b1001 X
b1111 U
b1110 $
b1110 7
b1110 E
b1110 W
1-
#880
0-
0*
b1100101 )
b1100101 1
b1100101 D
b1100101 0
#885
b11000 S
b1000 3
b1000 @
b1000 X
b10000 U
b1111 $
b1111 7
b1111 E
b1111 W
1-
#890
0-
b1100110 )
b1100110 1
b1100110 D
b1100110 0
#895
b11001 S
b11000 3
b11000 @
b11000 X
b10001 U
b10000 $
b10000 7
b10000 E
b10000 W
1-
#900
b11000 C
0-
1*
b1100111 )
b1100111 1
b1100111 D
b1100111 0
#905
b11011 S
b11001 3
b11001 @
b11001 X
b10010 U
b10001 $
b10001 7
b10001 E
b10001 W
1-
#910
0-
b1101000 )
b1101000 1
b1101000 D
b1101000 0
#915
b11010 S
b11011 3
b11011 @
b11011 X
b10011 U
b10010 $
b10010 7
b10010 E
b10010 W
1-
#920
0-
0*
b1101001 )
b1101001 1
b1101001 D
b1101001 0
#925
b11110 S
b11010 3
b11010 @
b11010 X
b10100 U
b10011 $
b10011 7
b10011 E
b10011 W
1-
#930
0-
b1101010 )
b1101010 1
b1101010 D
b1101010 0
#935
b11111 S
b11110 3
b11110 @
b11110 X
b10101 U
b10100 $
b10100 7
b10100 E
b10100 W
1-
#940
0M
b11000 2
b11000 B
b11000 L
b11110 C
0-
1*
b1101011 )
b1101011 1
b1101011 D
b1101011 0
#945
b11101 S
b11111 3
b11111 @
b11111 X
b10110 U
b10101 $
b10101 7
b10101 E
b10101 W
1-
#950
0-
b1101100 )
b1101100 1
b1101100 D
b1101100 0
#955
b11100 S
b11101 3
b11101 @
b11101 X
b10111 U
b10110 $
b10110 7
b10110 E
b10110 W
1-
#960
0-
0*
b1101101 )
b1101101 1
b1101101 D
b1101101 0
#965
0T
b10100 S
b11100 3
b11100 @
b11100 X
b11000 U
b10111 $
b10111 7
b10111 E
b10111 W
1-
#970
0-
b1101110 )
b1101110 1
b1101110 D
b1101110 0
#975
b10101 S
b10100 3
b10100 @
b10100 X
b11001 U
b11000 $
b11000 7
b11000 E
b11000 W
1-
#980
b11110 2
b11110 B
b11110 L
b10100 C
0"
0-
1*
b1101111 )
b1101111 1
b1101111 D
b1101111 0
#985
b10111 S
b10101 3
b10101 @
b10101 X
b11010 U
b11001 $
b11001 7
b11001 E
b11001 W
1-
#990
0-
b1110000 )
b1110000 1
b1110000 D
b1110000 0
#995
b10110 S
b10111 3
b10111 @
b10111 X
b11011 U
b11010 $
b11010 7
b11010 E
b11010 W
1-
#1000
0-
0*
b1110001 )
b1110001 1
b1110001 D
b1110001 0
#1005
b10010 S
b10110 3
b10110 @
b10110 X
b11100 U
b11011 $
b11011 7
b11011 E
b11011 W
1-
#1010
0-
b1110010 )
b1110010 1
b1110010 D
b1110010 0
#1015
1T
b10011 S
b10010 3
b10010 @
b10010 X
b11101 U
b11100 $
b11100 7
b11100 E
b11100 W
1-
#1020
b10100 2
b10100 B
b10100 L
b10010 C
0-
1*
b1110011 )
b1110011 1
b1110011 D
b1110011 0
#1025
1T
b10011 S
1!
b10011 3
b10011 @
b10011 X
b11101 U
b11101 $
b11101 7
b11101 E
b11101 W
1-
#1030
0-
0.
b1110100 0
#1035
1-
#1040
0-
0*
#1045
1-
#1050
0-
#1055
1-
#1060
b10010 2
b10010 B
b10010 L
b10011 C
0-
1*
#1065
1-
#1070
0-
#1075
1-
#1080
0-
0*
#1085
1-
#1090
0-
b1001 K
b1110 N
1+
#1095
1-
#1100
b1000 K
b10011 2
b10011 B
b10011 L
b1100100 #
b1100100 6
b1100100 J
b1001 5
b1001 <
b1001 Q
b1111 N
b1110 %
b1110 8
b1110 F
b1110 P
0-
1*
#1105
b1001 ?
1-
#1110
0-
#1115
0T
b1001 4
b1001 >
b1001 R
1-
#1120
0-
0*
#1125
0!
1-
#1130
0-
#1135
1-
#1140
b11000 K
b1100101 #
b1100101 6
b1100101 J
b1000 5
b1000 <
b1000 Q
b10000 N
b1111 %
b1111 8
b1111 F
b1111 P
0-
1*
#1145
b1000 ?
1-
#1150
0-
#1155
b1000 4
b1000 >
b1000 R
1-
#1160
0-
0*
#1165
1-
#1170
0-
#1175
1-
#1180
b11001 K
b1100110 #
b1100110 6
b1100110 J
b11000 5
b11000 <
b11000 Q
b10001 N
b10000 %
b10000 8
b10000 F
b10000 P
0-
1*
#1185
b11000 ?
1-
#1190
0-
#1195
b11000 4
b11000 >
b11000 R
1-
#1200
0-
0*
#1205
1-
#1210
0-
#1215
1-
#1220
b11011 K
bx #
bx 6
bx J
b11001 5
b11001 <
b11001 Q
b10010 N
b10001 %
b10001 8
b10001 F
b10001 P
0-
1*
#1225
b11001 ?
1-
#1230
0-
#1235
b11001 4
b11001 >
b11001 R
1-
#1240
0-
0*
#1245
1-
#1250
0-
#1255
1-
#1260
b11010 K
b11011 5
b11011 <
b11011 Q
b10011 N
b10010 %
b10010 8
b10010 F
b10010 P
0-
1*
#1265
b11011 ?
1-
#1270
0-
#1275
b11011 4
b11011 >
b11011 R
1-
#1280
0-
0*
#1285
1-
#1290
0-
#1295
1-
#1300
b11110 K
b11010 5
b11010 <
b11010 Q
b10100 N
b10011 %
b10011 8
b10011 F
b10011 P
0-
1*
#1305
b11010 ?
1-
#1310
0-
#1315
b11010 4
b11010 >
b11010 R
1-
#1320
0-
0*
#1325
1-
#1330
0-
#1335
1-
#1340
b11111 K
b11110 5
b11110 <
b11110 Q
b10101 N
b10100 %
b10100 8
b10100 F
b10100 P
0-
1*
#1345
b11110 ?
1-
#1350
0-
#1355
b11110 4
b11110 >
b11110 R
1-
#1360
0-
0*
#1365
1-
#1370
0-
#1375
1-
#1380
b11101 K
b11111 5
b11111 <
b11111 Q
b10110 N
b10101 %
b10101 8
b10101 F
b10101 P
0-
1*
#1385
b11111 ?
1-
#1390
0-
#1395
b11111 4
b11111 >
b11111 R
1-
#1400
0-
0*
#1405
1-
#1410
0-
b11111 K
b10101 N
0+
#1415
1-
#1420
0-
1*
#1425
1-
#1430
0-
b10001 S
b11110 U
b11001000 )
b11001000 1
b11001000 D
b11001000 0
1.
#1435
b10000 S
b10001 3
b10001 @
b10001 X
b11111 U
b11110 $
b11110 7
b11110 E
b11110 W
1-
#1440
0-
0*
b11001001 )
b11001001 1
b11001001 D
b11001001 0
#1445
b0 S
b10000 3
b10000 @
b10000 X
b0 U
b11111 $
b11111 7
b11111 E
b11111 W
1-
#1450
0-
b11001010 )
b11001010 1
b11001010 D
b11001010 0
#1455
b1 S
b0 3
b0 @
b0 X
b1 U
b0 $
b0 7
b0 E
b0 W
1-
#1460
b0 C
0-
1*
b11001011 )
b11001011 1
b11001011 D
b11001011 0
#1465
b11 S
b1 3
b1 @
b1 X
b10 U
b1 $
b1 7
b1 E
b1 W
1-
#1470
0-
b11101 K
b1 S
b10110 N
b1 U
1+
0.
b11001100 0
#1475
1-
#1480
0-
0*
#1485
1-
#1490
0-
#1495
1-
#1500
b11100 K
b0 2
b0 B
b0 L
b1 C
b11101 5
b11101 <
b11101 Q
b10111 N
b10110 %
b10110 8
b10110 F
b10110 P
0-
1*
#1505
b11101 ?
1-
#1510
0-
#1515
b11101 4
b11101 >
b11101 R
1-
#1520
0-
0*
#1525
1-
#1530
0-
#1535
1-
#1540
b10100 K
b1 2
b1 B
b1 L
b11100 5
b11100 <
b11100 Q
b11000 N
b10111 %
b10111 8
b10111 F
b10111 P
0-
1*
#1545
b11100 ?
1-
#1550
0-
#1555
b11100 4
b11100 >
b11100 R
1-
#1560
0-
0*
#1565
1-
#1570
0-
#1575
1-
#1580
b10101 K
b10100 5
b10100 <
b10100 Q
b11001 N
b11000 %
b11000 8
b11000 F
b11000 P
0-
1*
#1585
b10100 ?
1-
#1590
0-
#1595
b10100 4
b10100 >
b10100 R
1-
#1600
0-
0*
#1605
1-
#1610
0-
#1615
1-
#1620
b10111 K
b10101 5
b10101 <
b10101 Q
b11010 N
b11001 %
b11001 8
b11001 F
b11001 P
0-
1*
#1625
b10101 ?
1-
#1630
0-
#1635
b10101 4
b10101 >
b10101 R
1-
#1640
0-
0*
#1645
1-
#1650
0-
#1655
1-
#1660
b10110 K
b10111 5
b10111 <
b10111 Q
b11011 N
b11010 %
b11010 8
b11010 F
b11010 P
0-
1*
#1665
b10111 ?
1-
#1670
0-
#1675
b10111 4
b10111 >
b10111 R
1-
#1680
0-
0*
#1685
1-
#1690
0-
#1695
1-
#1700
b10010 K
b10110 5
b10110 <
b10110 Q
b11100 N
b11011 %
b11011 8
b11011 F
b11011 P
0-
1*
#1705
b10110 ?
1-
#1710
0-
#1715
b10110 4
b10110 >
b10110 R
1-
#1720
0-
0*
#1725
1-
#1730
0-
#1735
1-
#1740
b10011 K
b10010 5
b10010 <
b10010 Q
b11101 N
b11100 %
b11100 8
b11100 F
b11100 P
0-
1*
#1745
b10010 ?
1-
#1750
0-
#1755
b10010 4
b10010 >
b10010 R
1-
#1760
0-
0*
#1765
1-
#1770
0-
#1775
1-
#1780
b10001 K
b10011 5
b10011 <
b10011 Q
b11110 N
b11101 %
b11101 8
b11101 F
b11101 P
0-
1*
#1785
b10011 ?
1-
#1790
0-
#1795
b10011 4
b10011 >
b10011 R
1-
#1800
0-
0*
#1805
1-
#1810
0-
#1815
1-
#1820
b10000 K
b10001 5
b10001 <
b10001 Q
b11111 N
b11110 %
b11110 8
b11110 F
b11110 P
0-
1*
#1825
b10001 ?
1-
#1830
0-
#1835
b10001 4
b10001 >
b10001 R
1-
#1840
0-
0*
#1845
1-
#1850
0-
#1855
1-
#1860
b0 K
b10000 5
b10000 <
b10000 Q
b0 N
b11111 %
b11111 8
b11111 F
b11111 P
0-
1*
#1865
b10000 ?
1-
#1870
0-
#1875
b10000 4
b10000 >
b10000 R
1-
#1880
0-
0*
#1885
1-
#1890
0-
#1895
1-
#1900
1M
b1 K
b0 5
b0 <
b0 Q
b1 N
b0 %
b0 8
b0 F
b0 P
0-
1*
#1905
b0 ?
1-
#1910
0-
#1915
b0 4
b0 >
b0 R
1-
#1920
0-
0*
#1925
1-
#1930
0-
#1935
1-
#1940
1M
b1 K
b11001011 #
b11001011 6
b11001011 J
1"
b1 5
b1 <
b1 Q
b1 N
b1 %
b1 8
b1 F
b1 P
0-
1*
#1945
b1 ?
1-
#1950
0-
0+
#1955
b1 4
b1 >
b1 R
1-
